[
   {
      "ID": 1,
      "name": {
          "": "C"
      }
   },
   {
      "ID": 2,
      "name": {
          "sharp": "C#",
          "flat": "Db"
      }
   },
   {
      "ID": 3,
      "name": {
          "": "D"
      }
   },
   {
      "ID": 4,
      "name": {
        "sharp": "D#",
        "flat": "Eb"
      }
   },
   {
      "ID": 5,
      "name": {
        "": "E"
      }
   },
   {
      "ID": 6,
      "name": {
        "": "F"
      }
   },
   {
      "ID": 7,
      "name": {
        "sharp": "F#",
        "flat": "Gb"
      }
   },
   {
      "ID": 8,
      "name": {
        "": "G"
      }
   },
   {
      "ID": 9,
      "name": {
        "sharp": "G#",
        "flat": "Ab"
      }
   },
   {
      "ID": 10,
      "name": {
        "": "A"
      }
   },
   {
      "ID": 11,
      "name": {
        "sharp": "A#",
        "flat": "Bb"
      }
   },
   {
      "ID": 12,
      "name": {
        "": "B"
      }
   }
]
